Well 	Well Type 	Threshold (dRn) 	 Ct (dRn) 	
  A1 	  Unknown 	      Reference 	Reference 	
  A1 	  Unknown 	         0.2732 	    19.93 	
  A2 	  Unknown 	      Reference 	Reference 	
  A2 	  Unknown 	         0.2732 	    19.53 	
  A3 	  Unknown 	      Reference 	Reference 	
  A3 	  Unknown 	         0.2732 	    No Ct 	
  A4 	  Unknown 	      Reference 	Reference 	
  A4 	  Unknown 	         0.2732 	    31.59 	
  A5 	  Unknown 	      Reference 	Reference 	
  A5 	  Unknown 	         0.2732 	    24.02 	
  A6 	  Unknown 	      Reference 	Reference 	
  A6 	  Unknown 	         0.2732 	    23.15 	
  A7 	  Unknown 	      Reference 	Reference 	
  A7 	  Unknown 	         0.2732 	    26.08 	
  A8 	  Unknown 	      Reference 	Reference 	
  A8 	  Unknown 	         0.2732 	    No Ct 	
  A9 	  Unknown 	      Reference 	Reference 	
  A9 	  Unknown 	         0.2732 	    25.90 	
 A10 	  Unknown 	      Reference 	Reference 	
 A10 	  Unknown 	         0.2732 	    No Ct 	
 A11 	  Unknown 	      Reference 	Reference 	
 A11 	  Unknown 	         0.2732 	    No Ct 	
 A12 	  Unknown 	      Reference 	Reference 	
 A12 	  Unknown 	         0.2732 	    No Ct 	
  B1 	  Unknown 	      Reference 	Reference 	
  B1 	  Unknown 	         0.2732 	    23.26 	
  B2 	  Unknown 	      Reference 	Reference 	
  B2 	  Unknown 	         0.2732 	    22.99 	
  B3 	  Unknown 	      Reference 	Reference 	
  B3 	  Unknown 	         0.2732 	    No Ct 	
  B4 	  Unknown 	      Reference 	Reference 	
  B4 	  Unknown 	         0.2732 	    23.04 	
  B5 	  Unknown 	      Reference 	Reference 	
  B5 	  Unknown 	         0.2732 	    23.52 	
  B6 	  Unknown 	      Reference 	Reference 	
  B6 	  Unknown 	         0.2732 	    22.01 	
  B7 	  Unknown 	      Reference 	Reference 	
  B7 	  Unknown 	         0.2732 	    No Ct 	
  B8 	  Unknown 	      Reference 	Reference 	
  B8 	  Unknown 	         0.2732 	    No Ct 	
  B9 	  Unknown 	      Reference 	Reference 	
  B9 	  Unknown 	         0.2732 	    21.29 	
 B10 	  Unknown 	      Reference 	Reference 	
 B10 	  Unknown 	         0.2732 	    22.40 	
 B11 	  Unknown 	      Reference 	Reference 	
 B11 	  Unknown 	         0.2732 	    30.30 	
 B12 	  Unknown 	      Reference 	Reference 	
 B12 	  Unknown 	         0.2732 	    No Ct 	
  C1 	  Unknown 	      Reference 	Reference 	
  C1 	  Unknown 	         0.2732 	    26.97 	
  C2 	  Unknown 	      Reference 	Reference 	
  C2 	  Unknown 	         0.2732 	    26.77 	
  C3 	  Unknown 	      Reference 	Reference 	
  C3 	  Unknown 	         0.2732 	    22.52 	
  C4 	  Unknown 	      Reference 	Reference 	
  C4 	  Unknown 	         0.2732 	    No Ct 	
  C5 	  Unknown 	      Reference 	Reference 	
  C5 	  Unknown 	         0.2732 	    22.32 	
  C6 	  Unknown 	      Reference 	Reference 	
  C6 	  Unknown 	         0.2732 	    23.95 	
  C7 	  Unknown 	      Reference 	Reference 	
  C7 	  Unknown 	         0.2732 	    29.13 	
  C8 	  Unknown 	      Reference 	Reference 	
  C8 	  Unknown 	         0.2732 	    22.84 	
  C9 	  Unknown 	      Reference 	Reference 	
  C9 	  Unknown 	         0.2732 	    20.34 	
 C10 	  Unknown 	      Reference 	Reference 	
 C10 	  Unknown 	         0.2732 	    No Ct 	
 C11 	  Unknown 	      Reference 	Reference 	
 C11 	  Unknown 	         0.2732 	    No Ct 	
 C12 	  Unknown 	      Reference 	Reference 	
 C12 	  Unknown 	         0.2732 	    No Ct 	
  D1 	  Unknown 	      Reference 	Reference 	
  D1 	  Unknown 	         0.2732 	    31.16 	
  D2 	  Unknown 	      Reference 	Reference 	
  D2 	  Unknown 	         0.2732 	    30.33 	
  D3 	  Unknown 	      Reference 	Reference 	
  D3 	  Unknown 	         0.2732 	    21.49 	
  D4 	  Unknown 	      Reference 	Reference 	
  D4 	  Unknown 	         0.2732 	    23.59 	
  D5 	  Unknown 	      Reference 	Reference 	
  D5 	  Unknown 	         0.2732 	    No Ct 	
  D6 	  Unknown 	      Reference 	Reference 	
  D6 	  Unknown 	         0.2732 	    24.55 	
  D7 	  Unknown 	      Reference 	Reference 	
  D7 	  Unknown 	         0.2732 	    26.00 	
  D8 	  Unknown 	      Reference 	Reference 	
  D8 	  Unknown 	         0.2732 	    21.96 	
  D9 	  Unknown 	      Reference 	Reference 	
  D9 	  Unknown 	         0.2732 	    22.19 	
 D10 	  Unknown 	      Reference 	Reference 	
 D10 	  Unknown 	         0.2732 	    21.30 	
 D11 	  Unknown 	      Reference 	Reference 	
 D11 	  Unknown 	         0.2732 	    No Ct 	
 D12 	  Unknown 	      Reference 	Reference 	
 D12 	  Unknown 	         0.2732 	    No Ct 	
  E1 	  Unknown 	      Reference 	Reference 	
  E1 	  Unknown 	         0.2732 	    34.38 	
  E2 	  Unknown 	      Reference 	Reference 	
  E2 	  Unknown 	         0.2732 	    34.18 	
  E3 	  Unknown 	      Reference 	Reference 	
  E3 	  Unknown 	         0.2732 	    21.74 	
  E4 	  Unknown 	      Reference 	Reference 	
  E4 	  Unknown 	         0.2732 	    No Ct 	
  E5 	  Unknown 	      Reference 	Reference 	
  E5 	  Unknown 	         0.2732 	    No Ct 	
  E6 	  Unknown 	      Reference 	Reference 	
  E6 	  Unknown 	         0.2732 	    No Ct 	
  E7 	  Unknown 	      Reference 	Reference 	
  E7 	  Unknown 	         0.2732 	    No Ct 	
  E8 	  Unknown 	      Reference 	Reference 	
  E8 	  Unknown 	         0.2732 	    28.18 	
  E9 	  Unknown 	      Reference 	Reference 	
  E9 	  Unknown 	         0.2732 	    26.12 	
 E10 	  Unknown 	      Reference 	Reference 	
 E10 	  Unknown 	         0.2732 	    22.23 	
 E11 	  Unknown 	      Reference 	Reference 	
 E11 	  Unknown 	         0.2732 	    No Ct 	
 E12 	  Unknown 	      Reference 	Reference 	
 E12 	  Unknown 	         0.2732 	    No Ct 	
  F1 	  Unknown 	      Reference 	Reference 	
  F1 	  Unknown 	         0.2732 	    38.06 	
  F2 	  Unknown 	      Reference 	Reference 	
  F2 	  Unknown 	         0.2732 	    37.87 	
  F3 	  Unknown 	      Reference 	Reference 	
  F3 	  Unknown 	         0.2732 	    21.85 	
  F4 	  Unknown 	      Reference 	Reference 	
  F4 	  Unknown 	         0.2732 	    23.53 	
  F5 	  Unknown 	      Reference 	Reference 	
  F5 	  Unknown 	         0.2732 	    No Ct 	
  F6 	  Unknown 	      Reference 	Reference 	
  F6 	  Unknown 	         0.2732 	    21.52 	
  F7 	  Unknown 	      Reference 	Reference 	
  F7 	  Unknown 	         0.2732 	    No Ct 	
  F8 	  Unknown 	      Reference 	Reference 	
  F8 	  Unknown 	         0.2732 	    25.45 	
  F9 	  Unknown 	      Reference 	Reference 	
  F9 	  Unknown 	         0.2732 	    21.75 	
 F10 	  Unknown 	      Reference 	Reference 	
 F10 	  Unknown 	         0.2732 	    No Ct 	
 F11 	  Unknown 	      Reference 	Reference 	
 F11 	  Unknown 	         0.2732 	    No Ct 	
 F12 	  Unknown 	      Reference 	Reference 	
 F12 	  Unknown 	         0.2732 	    No Ct 	
  G1 	  Unknown 	      Reference 	Reference 	
  G1 	  Unknown 	         0.2732 	    No Ct 	
  G2 	  Unknown 	      Reference 	Reference 	
  G2 	  Unknown 	         0.2732 	    No Ct 	
  G3 	  Unknown 	      Reference 	Reference 	
  G3 	  Unknown 	         0.2732 	    22.13 	
  G4 	  Unknown 	      Reference 	Reference 	
  G4 	  Unknown 	         0.2732 	    23.41 	
  G5 	  Unknown 	      Reference 	Reference 	
  G5 	  Unknown 	         0.2732 	    32.76 	
  G6 	  Unknown 	      Reference 	Reference 	
  G6 	  Unknown 	         0.2732 	    20.75 	
  G7 	  Unknown 	      Reference 	Reference 	
  G7 	  Unknown 	         0.2732 	    21.78 	
  G8 	  Unknown 	      Reference 	Reference 	
  G8 	  Unknown 	         0.2732 	    24.88 	
  G9 	  Unknown 	      Reference 	Reference 	
  G9 	  Unknown 	         0.2732 	    22.69 	
 G10 	  Unknown 	      Reference 	Reference 	
 G10 	  Unknown 	         0.2732 	    No Ct 	
 G11 	  Unknown 	      Reference 	Reference 	
 G11 	  Unknown 	         0.2732 	    No Ct 	
 G12 	  Unknown 	      Reference 	Reference 	
 G12 	  Unknown 	         0.2732 	    No Ct 	
  H1 	  Unknown 	      Reference 	Reference 	
  H1 	  Unknown 	         0.2732 	    No Ct 	
  H2 	  Unknown 	      Reference 	Reference 	
  H2 	  Unknown 	         0.2732 	    No Ct 	
  H3 	  Unknown 	      Reference 	Reference 	
  H3 	  Unknown 	         0.2732 	    23.61 	
  H4 	  Unknown 	      Reference 	Reference 	
  H4 	  Unknown 	         0.2732 	    23.66 	
  H5 	  Unknown 	      Reference 	Reference 	
  H5 	  Unknown 	         0.2732 	    24.71 	
  H6 	  Unknown 	      Reference 	Reference 	
  H6 	  Unknown 	         0.2732 	    23.88 	
  H7 	  Unknown 	      Reference 	Reference 	
  H7 	  Unknown 	         0.2732 	    25.85 	
  H8 	  Unknown 	      Reference 	Reference 	
  H8 	  Unknown 	         0.2732 	    22.22 	
  H9 	  Unknown 	      Reference 	Reference 	
  H9 	  Unknown 	         0.2732 	    No Ct 	
 H10 	  Unknown 	      Reference 	Reference 	
 H10 	  Unknown 	         0.2732 	    20.99 	
 H11 	  Unknown 	      Reference 	Reference 	
 H11 	  Unknown 	         0.2732 	    No Ct 	
 H12 	  Unknown 	      Reference 	Reference 	
 H12 	  Unknown 	         0.2732 	    No Ct 	
